ProjetoFinal/simulation/qsim/ProjetoFinal.msim.vcd
$comment
	File created using the following command:
		vcd file ProjetoFinal.msim.vcd -direction
$end
$date
	Mon May 24 17:39:50 2021
$end
$version
	ModelSim Version 2020.1
$end
$timescale
	1ps
$end

$scope module ProjetoFinal_vlg_vec_tst $end
$var reg 1 ! Botao_escolhe_0 $end
$var reg 1 " Botao_escolhe_1 $end
$var reg 1 # Botao_escolhe_2 $end
$var reg 1 $ Botao_escolhe_3 $end
$var reg 1 % Botao_Inicial $end
$var reg 1 & clock_ganhei $end
$var reg 1 ' Clock_Maquina_0 $end
$var reg 1 ( Clock_Maquina_1 $end
$var reg 1 ) Clock_Maquina_2 $end
$var reg 1 * Clock_Maquina_3 $end
$var reg 1 + On_Off $end
$var reg 1 , Velocidade_escolha $end
$var wire 1 - Desejado_Mostrador_0 [6] $end
$var wire 1 . Desejado_Mostrador_0 [5] $end
$var wire 1 / Desejado_Mostrador_0 [4] $end
$var wire 1 0 Desejado_Mostrador_0 [3] $end
$var wire 1 1 Desejado_Mostrador_0 [2] $end
$var wire 1 2 Desejado_Mostrador_0 [1] $end
$var wire 1 3 Desejado_Mostrador_0 [0] $end
$var wire 1 4 Desejado_Mostrador_1 [6] $end
$var wire 1 5 Desejado_Mostrador_1 [5] $end
$var wire 1 6 Desejado_Mostrador_1 [4] $end
$var wire 1 7 Desejado_Mostrador_1 [3] $end
$var wire 1 8 Desejado_Mostrador_1 [2] $end
$var wire 1 9 Desejado_Mostrador_1 [1] $end
$var wire 1 : Desejado_Mostrador_1 [0] $end
$var wire 1 ; Desejado_Mostrador_2 [6] $end
$var wire 1 < Desejado_Mostrador_2 [5] $end
$var wire 1 = Desejado_Mostrador_2 [4] $end
$var wire 1 > Desejado_Mostrador_2 [3] $end
$var wire 1 ? Desejado_Mostrador_2 [2] $end
$var wire 1 @ Desejado_Mostrador_2 [1] $end
$var wire 1 A Desejado_Mostrador_2 [0] $end
$var wire 1 B Desejado_Mostrador_3 [6] $end
$var wire 1 C Desejado_Mostrador_3 [5] $end
$var wire 1 D Desejado_Mostrador_3 [4] $end
$var wire 1 E Desejado_Mostrador_3 [3] $end
$var wire 1 F Desejado_Mostrador_3 [2] $end
$var wire 1 G Desejado_Mostrador_3 [1] $end
$var wire 1 H Desejado_Mostrador_3 [0] $end
$var wire 1 I Escolhido_Mostrador_0 [6] $end
$var wire 1 J Escolhido_Mostrador_0 [5] $end
$var wire 1 K Escolhido_Mostrador_0 [4] $end
$var wire 1 L Escolhido_Mostrador_0 [3] $end
$var wire 1 M Escolhido_Mostrador_0 [2] $end
$var wire 1 N Escolhido_Mostrador_0 [1] $end
$var wire 1 O Escolhido_Mostrador_0 [0] $end
$var wire 1 P Escolhido_Mostrador_1 [6] $end
$var wire 1 Q Escolhido_Mostrador_1 [5] $end
$var wire 1 R Escolhido_Mostrador_1 [4] $end
$var wire 1 S Escolhido_Mostrador_1 [3] $end
$var wire 1 T Escolhido_Mostrador_1 [2] $end
$var wire 1 U Escolhido_Mostrador_1 [1] $end
$var wire 1 V Escolhido_Mostrador_1 [0] $end
$var wire 1 W Escolhido_Mostrador_2 [6] $end
$var wire 1 X Escolhido_Mostrador_2 [5] $end
$var wire 1 Y Escolhido_Mostrador_2 [4] $end
$var wire 1 Z Escolhido_Mostrador_2 [3] $end
$var wire 1 [ Escolhido_Mostrador_2 [2] $end
$var wire 1 \ Escolhido_Mostrador_2 [1] $end
$var wire 1 ] Escolhido_Mostrador_2 [0] $end
$var wire 1 ^ Escolhido_Mostrador_3 [6] $end
$var wire 1 _ Escolhido_Mostrador_3 [5] $end
$var wire 1 ` Escolhido_Mostrador_3 [4] $end
$var wire 1 a Escolhido_Mostrador_3 [3] $end
$var wire 1 b Escolhido_Mostrador_3 [2] $end
$var wire 1 c Escolhido_Mostrador_3 [1] $end
$var wire 1 d Escolhido_Mostrador_3 [0] $end
$var wire 1 e Numero_desejado_0 [3] $end
$var wire 1 f Numero_desejado_0 [2] $end
$var wire 1 g Numero_desejado_0 [1] $end
$var wire 1 h Numero_desejado_0 [0] $end
$var wire 1 i Numero_desejado_1 [3] $end
$var wire 1 j Numero_desejado_1 [2] $end
$var wire 1 k Numero_desejado_1 [1] $end
$var wire 1 l Numero_desejado_1 [0] $end
$var wire 1 m Numero_desejado_2 [3] $end
$var wire 1 n Numero_desejado_2 [2] $end
$var wire 1 o Numero_desejado_2 [1] $end
$var wire 1 p Numero_desejado_2 [0] $end
$var wire 1 q Numero_desejado_3 [3] $end
$var wire 1 r Numero_desejado_3 [2] $end
$var wire 1 s Numero_desejado_3 [1] $end
$var wire 1 t Numero_desejado_3 [0] $end
$var wire 1 u Numero_escolhido_0 [3] $end
$var wire 1 v Numero_escolhido_0 [2] $end
$var wire 1 w Numero_escolhido_0 [1] $end
$var wire 1 x Numero_escolhido_0 [0] $end
$var wire 1 y Numero_escolhido_1 [3] $end
$var wire 1 z Numero_escolhido_1 [2] $end
$var wire 1 { Numero_escolhido_1 [1] $end
$var wire 1 | Numero_escolhido_1 [0] $end
$var wire 1 } Numero_escolhido_2 [3] $end
$var wire 1 ~ Numero_escolhido_2 [2] $end
$var wire 1 !! Numero_escolhido_2 [1] $end
$var wire 1 "! Numero_escolhido_2 [0] $end
$var wire 1 #! Numero_escolhido_3 [3] $end
$var wire 1 $! Numero_escolhido_3 [2] $end
$var wire 1 %! Numero_escolhido_3 [1] $end
$var wire 1 &! Numero_escolhido_3 [0] $end
$var wire 1 '! Vitoria $end

$scope module i1 $end
$var wire 1 (! gnd $end
$var wire 1 )! vcc $end
$var wire 1 *! unknown $end
$var tri1 1 +! devclrn $end
$var tri1 1 ,! devpor $end
$var tri1 1 -! devoe $end
$var wire 1 .! Vitoria~output_o $end
$var wire 1 /! Numero_desejado_3[3]~output_o $end
$var wire 1 0! Numero_desejado_3[2]~output_o $end
$var wire 1 1! Numero_desejado_3[1]~output_o $end
$var wire 1 2! Numero_desejado_3[0]~output_o $end
$var wire 1 3! Numero_desejado_2[3]~output_o $end
$var wire 1 4! Numero_desejado_2[2]~output_o $end
$var wire 1 5! Numero_desejado_2[1]~output_o $end
$var wire 1 6! Numero_desejado_2[0]~output_o $end
$var wire 1 7! Numero_desejado_1[3]~output_o $end
$var wire 1 8! Numero_desejado_1[2]~output_o $end
$var wire 1 9! Numero_desejado_1[1]~output_o $end
$var wire 1 :! Numero_desejado_1[0]~output_o $end
$var wire 1 ;! Numero_desejado_0[3]~output_o $end
$var wire 1 <! Numero_desejado_0[2]~output_o $end
$var wire 1 =! Numero_desejado_0[1]~output_o $end
$var wire 1 >! Numero_desejado_0[0]~output_o $end
$var wire 1 ?! Numero_escolhido_3[3]~output_o $end
$var wire 1 @! Numero_escolhido_3[2]~output_o $end
$var wire 1 A! Numero_escolhido_3[1]~output_o $end
$var wire 1 B! Numero_escolhido_3[0]~output_o $end
$var wire 1 C! Numero_escolhido_2[3]~output_o $end
$var wire 1 D! Numero_escolhido_2[2]~output_o $end
$var wire 1 E! Numero_escolhido_2[1]~output_o $end
$var wire 1 F! Numero_escolhido_2[0]~output_o $end
$var wire 1 G! Numero_escolhido_1[3]~output_o $end
$var wire 1 H! Numero_escolhido_1[2]~output_o $end
$var wire 1 I! Numero_escolhido_1[1]~output_o $end
$var wire 1 J! Numero_escolhido_1[0]~output_o $end
$var wire 1 K! Numero_escolhido_0[3]~output_o $end
$var wire 1 L! Numero_escolhido_0[2]~output_o $end
$var wire 1 M! Numero_escolhido_0[1]~output_o $end
$var wire 1 N! Numero_escolhido_0[0]~output_o $end
$var wire 1 O! Desejado_Mostrador_0[6]~output_o $end
$var wire 1 P! Desejado_Mostrador_0[5]~output_o $end
$var wire 1 Q! Desejado_Mostrador_0[4]~output_o $end
$var wire 1 R! Desejado_Mostrador_0[3]~output_o $end
$var wire 1 S! Desejado_Mostrador_0[2]~output_o $end
$var wire 1 T! Desejado_Mostrador_0[1]~output_o $end
$var wire 1 U! Desejado_Mostrador_0[0]~output_o $end
$var wire 1 V! Desejado_Mostrador_1[6]~output_o $end
$var wire 1 W! Desejado_Mostrador_1[5]~output_o $end
$var wire 1 X! Desejado_Mostrador_1[4]~output_o $end
$var wire 1 Y! Desejado_Mostrador_1[3]~output_o $end
$var wire 1 Z! Desejado_Mostrador_1[2]~output_o $end
$var wire 1 [! Desejado_Mostrador_1[1]~output_o $end
$var wire 1 \! Desejado_Mostrador_1[0]~output_o $end
$var wire 1 ]! Desejado_Mostrador_2[6]~output_o $end
$var wire 1 ^! Desejado_Mostrador_2[5]~output_o $end
$var wire 1 _! Desejado_Mostrador_2[4]~output_o $end
$var wire 1 `! Desejado_Mostrador_2[3]~output_o $end
$var wire 1 a! Desejado_Mostrador_2[2]~output_o $end
$var wire 1 b! Desejado_Mostrador_2[1]~output_o $end
$var wire 1 c! Desejado_Mostrador_2[0]~output_o $end
$var wire 1 d! Desejado_Mostrador_3[6]~output_o $end
$var wire 1 e! Desejado_Mostrador_3[5]~output_o $end
$var wire 1 f! Desejado_Mostrador_3[4]~output_o $end
$var wire 1 g! Desejado_Mostrador_3[3]~output_o $end
$var wire 1 h! Desejado_Mostrador_3[2]~output_o $end
$var wire 1 i! Desejado_Mostrador_3[1]~output_o $end
$var wire 1 j! Desejado_Mostrador_3[0]~output_o $end
$var wire 1 k! Escolhido_Mostrador_0[6]~output_o $end
$var wire 1 l! Escolhido_Mostrador_0[5]~output_o $end
$var wire 1 m! Escolhido_Mostrador_0[4]~output_o $end
$var wire 1 n! Escolhido_Mostrador_0[3]~output_o $end
$var wire 1 o! Escolhido_Mostrador_0[2]~output_o $end
$var wire 1 p! Escolhido_Mostrador_0[1]~output_o $end
$var wire 1 q! Escolhido_Mostrador_0[0]~output_o $end
$var wire 1 r! Escolhido_Mostrador_1[6]~output_o $end
$var wire 1 s! Escolhido_Mostrador_1[5]~output_o $end
$var wire 1 t! Escolhido_Mostrador_1[4]~output_o $end
$var wire 1 u! Escolhido_Mostrador_1[3]~output_o $end
$var wire 1 v! Escolhido_Mostrador_1[2]~output_o $end
$var wire 1 w! Escolhido_Mostrador_1[1]~output_o $end
$var wire 1 x! Escolhido_Mostrador_1[0]~output_o $end
$var wire 1 y! Escolhido_Mostrador_2[6]~output_o $end
$var wire 1 z! Escolhido_Mostrador_2[5]~output_o $end
$var wire 1 {! Escolhido_Mostrador_2[4]~output_o $end
$var wire 1 |! Escolhido_Mostrador_2[3]~output_o $end
$var wire 1 }! Escolhido_Mostrador_2[2]~output_o $end
$var wire 1 ~! Escolhido_Mostrador_2[1]~output_o $end
$var wire 1 !" Escolhido_Mostrador_2[0]~output_o $end
$var wire 1 "" Escolhido_Mostrador_3[6]~output_o $end
$var wire 1 #" Escolhido_Mostrador_3[5]~output_o $end
$var wire 1 $" Escolhido_Mostrador_3[4]~output_o $end
$var wire 1 %" Escolhido_Mostrador_3[3]~output_o $end
$var wire 1 &" Escolhido_Mostrador_3[2]~output_o $end
$var wire 1 '" Escolhido_Mostrador_3[1]~output_o $end
$var wire 1 (" Escolhido_Mostrador_3[0]~output_o $end
$var wire 1 )" Clock_Maquina_1~input_o $end
$var wire 1 *" On_Off~input_o $end
$var wire 1 +" Botao_Inicial~input_o $end
$var wire 1 ," inst12sasasa~combout $end
$var wire 1 -" inst28|inst223~q $end
$var wire 1 ." inst28|inst12dsds7~combout $end
$var wire 1 /" inst28|inst12dsds7~clkctrl_outclk $end
$var wire 1 0" inst28|inst~0_combout $end
$var wire 1 1" inst28|inst~q $end
$var wire 1 2" inst28|inst1~0_combout $end
$var wire 1 3" inst28|inst1~q $end
$var wire 1 4" inst28|inst2~0_combout $end
$var wire 1 5" inst28|inst2~q $end
$var wire 1 6" inst28|inst12dsds6~combout $end
$var wire 1 7" inst28|inst3~0_combout $end
$var wire 1 8" inst28|inst3~q $end
$var wire 1 9" Velocidade_escolha~input_o $end
$var wire 1 :" Botao_escolhe_1~input_o $end
$var wire 1 ;" instSSSSaaa38~combout $end
$var wire 1 <" inst23|inst223~q $end
$var wire 1 =" inst23|inst12dsds7~combout $end
$var wire 1 >" inst23|inst12dsds7~clkctrl_outclk $end
$var wire 1 ?" inst23|inst~0_combout $end
$var wire 1 @" Clock_Maquina_3~input_o $end
$var wire 1 A" instaaaa2222~combout $end
$var wire 1 B" inst222~feeder_combout $end
$var wire 1 C" inst222~q $end
$var wire 1 D" inst23|inst~q $end
$var wire 1 E" inst23|inst1~0_combout $end
$var wire 1 F" inst23|inst1~q $end
$var wire 1 G" inst23|inst2~0_combout $end
$var wire 1 H" inst23|inst2~q $end
$var wire 1 I" inst23|inst12dsds6~combout $end
$var wire 1 J" inst23|inst3~0_combout $end
$var wire 1 K" inst23|inst3~q $end
$var wire 1 L" inst|EQWEWQEQ1~6_combout $end
$var wire 1 M" Botao_escolhe_0~input_o $end
$var wire 1 N" instSSSSaaa39~combout $end
$var wire 1 O" inst24|inst223~q $end
$var wire 1 P" inst24|inst12dsds7~combout $end
$var wire 1 Q" inst24|inst12dsds7~clkctrl_outclk $end
$var wire 1 R" inst24|inst~0_combout $end
$var wire 1 S" inst24|inst~q $end
$var wire 1 T" inst24|inst1~0_combout $end
$var wire 1 U" inst24|inst1~q $end
$var wire 1 V" inst29|inst223~feeder_combout $end
$var wire 1 W" inst29|inst223~q $end
$var wire 1 X" Clock_Maquina_0~input_o $end
$var wire 1 Y" inst29|inst12dsds7~combout $end
$var wire 1 Z" inst29|inst12dsds7~clkctrl_outclk $end
$var wire 1 [" inst29|inst~0_combout $end
$var wire 1 \" inst29|inst~q $end
$var wire 1 ]" inst29|inst1~0_combout $end
$var wire 1 ^" inst29|inst1~feeder_combout $end
$var wire 1 _" inst29|inst1~q $end
$var wire 1 `" inst|EQWEWQEQ1~9_combout $end
$var wire 1 a" inst|EQWEWQEQ1~7_combout $end
$var wire 1 b" inst24|inst2~0_combout $end
$var wire 1 c" inst24|inst2~q $end
$var wire 1 d" inst24|inst12dsds6~combout $end
$var wire 1 e" inst24|inst3~0_combout $end
$var wire 1 f" inst24|inst3~q $end
$var wire 1 g" inst29|inst2~0_combout $end
$var wire 1 h" inst29|inst2~q $end
$var wire 1 i" inst29|inst12dsds6~combout $end
$var wire 1 j" inst29|inst3~0_combout $end
$var wire 1 k" inst29|inst3~q $end
$var wire 1 l" inst|EQWEWQEQ1~8_combout $end
$var wire 1 m" inst|EQWEWQEQ1~10_combout $end
$var wire 1 n" Botao_escolhe_2~input_o $end
$var wire 1 o" instSSSSaaa37~combout $end
$var wire 1 p" inst22|inst223~feeder_combout $end
$var wire 1 q" inst22|inst223~q $end
$var wire 1 r" inst22|inst12dsds7~combout $end
$var wire 1 s" inst22|inst12dsds7~clkctrl_outclk $end
$var wire 1 t" inst22|inst~0_combout $end
$var wire 1 u" inst22|inst~q $end
$var wire 1 v" inst22|inst1~0_combout $end
$var wire 1 w" inst22|inst1~q $end
$var wire 1 x" Clock_Maquina_2~input_o $end
$var wire 1 y" inst27|inst223~q $end
$var wire 1 z" inst27|inst12dsds7~combout $end
$var wire 1 {" inst27|inst12dsds7~clkctrl_outclk $end
$var wire 1 |" inst27|inst~0_combout $end
$var wire 1 }" inst27|inst~q $end
$var wire 1 ~" inst27|inst1~0_combout $end
$var wire 1 !# inst27|inst1~q $end
$var wire 1 "# inst|EQWEWQEQ1~3_combout $end
$var wire 1 ## Botao_escolhe_3~input_o $end
$var wire 1 $# instSSSSaaa36~combout $end
$var wire 1 %# DSADSADASDSA|inst223~feeder_combout $end
$var wire 1 &# DSADSADASDSA|inst223~q $end
$var wire 1 '# DSADSADASDSA|inst12dsds7~combout $end
$var wire 1 (# DSADSADASDSA|inst12dsds7~clkctrl_outclk $end
$var wire 1 )# DSADSADASDSA|inst~0_combout $end
$var wire 1 *# DSADSADASDSA|inst~q $end
$var wire 1 +# DSADSADASDSA|inst1~0_combout $end
$var wire 1 ,# DSADSADASDSA|inst1~q $end
$var wire 1 -# inst30|inst223~q $end
$var wire 1 .# inst30|inst12dsds7~combout $end
$var wire 1 /# inst30|inst12dsds7~clkctrl_outclk $end
$var wire 1 0# inst30|inst~0_combout $end
$var wire 1 1# inst30|inst~q $end
$var wire 1 2# inst30|inst1~0_combout $end
$var wire 1 3# inst30|inst1~q $end
$var wire 1 4# inst|EQWEWQEQ1~1_combout $end
$var wire 1 5# DSADSADASDSA|inst2~0_combout $end
$var wire 1 6# DSADSADASDSA|inst2~q $end
$var wire 1 7# DSADSADASDSA|inst12dsds6~combout $end
$var wire 1 8# DSADSADASDSA|inst3~0_combout $end
$var wire 1 9# DSADSADASDSA|inst3~q $end
$var wire 1 :# inst30|inst2~0_combout $end
$var wire 1 ;# inst30|inst2~q $end
$var wire 1 <# inst30|inst12dsds6~combout $end
$var wire 1 =# inst30|inst3~0_combout $end
$var wire 1 ># inst30|inst3~q $end
$var wire 1 ?# inst|EQWEWQEQ1~0_combout $end
$var wire 1 @# inst22|inst2~0_combout $end
$var wire 1 A# inst22|inst2~q $end
$var wire 1 B# inst22|inst12dsds6~combout $end
$var wire 1 C# inst22|inst3~0_combout $end
$var wire 1 D# inst22|inst3~q $end
$var wire 1 E# inst27|inst2~0_combout $end
$var wire 1 F# inst27|inst2~q $end
$var wire 1 G# inst27|inst12dsds6~combout $end
$var wire 1 H# inst27|inst3~0_combout $end
$var wire 1 I# inst27|inst3~q $end
$var wire 1 J# inst|EQWEWQEQ1~2_combout $end
$var wire 1 K# inst|EQWEWQEQ1~4_combout $end
$var wire 1 L# clock_ganhei~input_o $end
$var wire 1 M# instSSSSaaa41~combout $end
$var wire 1 N# inst41~q $end
$var wire 1 O# instSSSSaaa42~combout $end
$var wire 1 P# inst43~q $end
$var wire 1 Q# instSSSSaaa43~combout $end
$var wire 1 R# inst45~q $end
$var wire 1 S# instSSSSaaa40~combout $end
$var wire 1 T# inst39~q $end
$var wire 1 U# inst|EQWEWQEQ1~5_combout $end
$var wire 1 V# inst|EQWEWQEQ1~11_combout $end
$var wire 1 W# inst35|inst24~0_combout $end
$var wire 1 X# inst35|inst33~0_combout $end
$var wire 1 Y# inst35|inst40~0_combout $end
$var wire 1 Z# inst35|inst43~0_combout $end
$var wire 1 [# inst35|inst48~0_combout $end
$var wire 1 \# inst35|inst58~0_combout $end
$var wire 1 ]# inst35|inst61~0_combout $end
$var wire 1 ^# inst34|inst24~0_combout $end
$var wire 1 _# inst34|inst33~0_combout $end
$var wire 1 `# inst34|inst40~0_combout $end
$var wire 1 a# inst34|inst43~0_combout $end
$var wire 1 b# inst34|inst48~0_combout $end
$var wire 1 c# inst34|inst58~0_combout $end
$var wire 1 d# inst34|inst61~0_combout $end
$var wire 1 e# gfdggf|inst24~0_combout $end
$var wire 1 f# gfdggf|inst33~0_combout $end
$var wire 1 g# gfdggf|inst40~0_combout $end
$var wire 1 h# gfdggf|inst43~0_combout $end
$var wire 1 i# gfdggf|inst48~0_combout $end
$var wire 1 j# gfdggf|inst58~0_combout $end
$var wire 1 k# gfdggf|inst61~0_combout $end
$var wire 1 l# dsadsaadsdsa|inst24~0_combout $end
$var wire 1 m# dsadsaadsdsa|inst33~0_combout $end
$var wire 1 n# dsadsaadsdsa|inst40~0_combout $end
$var wire 1 o# dsadsaadsdsa|inst43~0_combout $end
$var wire 1 p# dsadsaadsdsa|inst48~0_combout $end
$var wire 1 q# dsadsaadsdsa|inst58~0_combout $end
$var wire 1 r# dsadsaadsdsa|inst61~0_combout $end
$var wire 1 s# inst33|inst24~0_combout $end
$var wire 1 t# inst33|inst33~0_combout $end
$var wire 1 u# inst33|inst40~0_combout $end
$var wire 1 v# inst33|inst43~0_combout $end
$var wire 1 w# inst33|inst48~0_combout $end
$var wire 1 x# inst33|inst58~0_combout $end
$var wire 1 y# inst33|inst61~0_combout $end
$var wire 1 z# inst38|inst24~0_combout $end
$var wire 1 {# inst38|inst33~0_combout $end
$var wire 1 |# inst38|inst40~0_combout $end
$var wire 1 }# inst38|inst43~0_combout $end
$var wire 1 ~# inst38|inst48~0_combout $end
$var wire 1 !$ inst38|inst58~0_combout $end
$var wire 1 "$ inst38|inst61~0_combout $end
$var wire 1 #$ inst37|inst24~0_combout $end
$var wire 1 $$ inst37|inst33~0_combout $end
$var wire 1 %$ inst37|inst40~0_combout $end
$var wire 1 &$ inst37|inst43~0_combout $end
$var wire 1 '$ inst37|inst48~0_combout $end
$var wire 1 ($ inst37|inst58~0_combout $end
$var wire 1 )$ inst37|inst61~0_combout $end
$var wire 1 *$ inst36|inst24~0_combout $end
$var wire 1 +$ inst36|inst33~0_combout $end
$var wire 1 ,$ inst36|inst40~0_combout $end
$var wire 1 -$ inst36|inst43~0_combout $end
$var wire 1 .$ inst36|inst48~0_combout $end
$var wire 1 /$ inst36|inst58~0_combout $end
$var wire 1 0$ inst36|inst61~0_combout $end
$upscope $end
$upscope $end
$enddefinitions $end
#0
$dumpvars
0!
0"
0#
0$
0%
0&
0'
1(
0)
1*
1+
1,
03
12
11
10
1/
1.
1-
0:
19
18
17
16
15
14
0A
1@
1?
1>
1=
1<
1;
0H
1G
1F
1E
1D
1C
1B
0O
1N
1M
1L
1K
1J
1I
0V
1U
1T
1S
1R
1Q
1P
0]
1\
1[
1Z
1Y
1X
1W
0d
1c
1b
1a
1`
1_
1^
0h
0g
0f
0e
0l
0k
0j
0i
0p
0o
0n
0m
0t
0s
0r
0q
0x
0w
0v
0u
0|
0{
0z
0y
0"!
0!!
0~
0}
0&!
0%!
0$!
0#!
0'!
0(!
1)!
x*!
1+!
1,!
1-!
0.!
0/!
00!
01!
02!
03!
04!
05!
06!
07!
08!
09!
0:!
0;!
0<!
0=!
0>!
0?!
0@!
0A!
0B!
0C!
0D!
0E!
0F!
0G!
0H!
0I!
0J!
0K!
0L!
0M!
0N!
1O!
1P!
1Q!
1R!
1S!
1T!
0U!
1V!
1W!
1X!
1Y!
1Z!
1[!
0\!
1]!
1^!
1_!
1`!
1a!
1b!
0c!
1d!
1e!
1f!
1g!
1h!
1i!
0j!
1k!
1l!
1m!
1n!
1o!
1p!
0q!
1r!
1s!
1t!
1u!
1v!
1w!
0x!
1y!
1z!
1{!
1|!
1}!
1~!
0!"
1""
1#"
1$"
1%"
1&"
1'"
0("
1)"
1*"
0+"
0,"
0-"
1."
1/"
10"
01"
02"
03"
04"
05"
06"
07"
08"
19"
0:"
0;"
0<"
1="
1>"
1?"
1@"
1A"
0B"
0C"
0D"
0E"
0F"
0G"
0H"
0I"
0J"
0K"
1L"
0M"
0N"
0O"
1P"
1Q"
1R"
0S"
0T"
0U"
0V"
0W"
0X"
0Y"
0Z"
1["
0\"
0]"
0^"
0_"
1`"
1a"
0b"
0c"
0d"
0e"
0f"
0g"
0h"
0i"
0j"
0k"
1l"
1m"
0n"
0o"
0p"
0q"
1r"
1s"
1t"
0u"
0v"
0w"
0x"
0y"
0z"
0{"
1|"
0}"
0~"
0!#
1"#
0##
0$#
0%#
0&#
1'#
1(#
1)#
0*#
0+#
0,#
0-#
1.#
1/#
10#
01#
02#
03#
14#
05#
06#
07#
08#
09#
0:#
0;#
0<#
0=#
0>#
1?#
0@#
0A#
0B#
0C#
0D#
0E#
0F#
0G#
0H#
0I#
1J#
1K#
0L#
0M#
0N#
0O#
0P#
0Q#
0R#
0S#
0T#
0U#
0V#
1W#
1X#
1Y#
1Z#
1[#
1\#
0]#
1^#
1_#
1`#
1a#
1b#
1c#
0d#
1e#
1f#
1g#
1h#
1i#
1j#
0k#
1l#
1m#
1n#
1o#
1p#
1q#
0r#
1s#
1t#
1u#
1v#
1w#
1x#
0y#
1z#
1{#
1|#
1}#
1~#
1!$
0"$
1#$
1$$
1%$
1&$
1'$
1($
0)$
1*$
1+$
1,$
1-$
1.$
1/$
00$
$end
#1000
0,
1'
0(
1)
0*
1&
09"
1X"
0)"
1x"
0@"
1L#
0'#
0r"
0P"
0="
1Y"
0."
1z"
1{"
0/"
1Z"
0>"
0Q"
0s"
0(#
0A"
1S#
1Q#
1O#
1M#
0.#
0/#
1}"
1\"
1>!
16!
0"#
1~"
0`"
1]"
1p
1h
0j#
0i#
0h#
0e#
0|"
0\#
0[#
0Z#
0W#
0["
0O!
0R!
0S!
0T!
0]!
0`!
0a!
0b!
0K#
0m"
0@
0?
0>
0;
02
01
00
0-
1^"
#2000
0'
0)
0&
0X"
0x"
0L#
0Y"
0z"
0{"
0Z"
0S#
0Q#
0O#
0M#
#3000
1*
1'
1)
1&
1@"
1X"
1x"
1L#
1Y"
1z"
1{"
1Z"
1A"
1S#
1Q#
1O#
1M#
1.#
1/#
11#
1!#
0}"
1_"
0\"
0>!
1=!
06!
15!
12!
04#
12#
1t
1o
0p
1g
0h
0q#
0p#
0o#
0l#
00#
1k#
1i#
1h#
0g#
1e#
1|"
1]#
1[#
1Z#
0Y#
1W#
1["
1O!
0Q!
1R!
1S!
1U!
1]!
0_!
1`!
1a!
1c!
0d!
0g!
0h!
0i!
0G
0F
0E
0B
1A
1?
1>
0=
1;
13
11
10
0/
1-
#3500
1(
1)"
1."
1/"
11"
1:!
0a"
12"
1l
0c#
0b#
0a#
0^#
00"
0V!
0Y!
0Z!
0[!
09
08
07
04
#4000
0'
0)
0&
0X"
0x"
0L#
0Y"
0z"
0{"
0Z"
0S#
0Q#
0O#
0M#
#5000
0*
1'
1)
1&
0@"
1X"
1x"
1L#
1Y"
1z"
1{"
1Z"
0A"
1S#
1Q#
1O#
1M#
0.#
0/#
1}"
1\"
1>!
16!
1E#
0~"
1g"
0]"
1p
1h
0i#
1g#
0|"
0[#
1Y#
0["
1Q!
0S!
1_!
0a!
0?
1=
01
1/
0^"
#6000
1,
0(
0'
0)
0&
19"
0)"
0X"
0x"
0L#
1'#
1r"
1P"
1="
0."
0Y"
0z"
0{"
0Z"
0/"
1>"
1Q"
1s"
1(#
0S#
0Q#
0O#
0M#
#7000
1*
1'
1)
1&
1@"
1X"
1x"
1L#
1Y"
1z"
1{"
1Z"
1A"
1S#
1Q#
1O#
1M#
1.#
1/#
13#
01#
1F#
0!#
0}"
1h"
0_"
0\"
0>!
0=!
1<!
06!
05!
14!
02!
11!
0J#
1"#
0l"
1`"
1s
0t
1n
0o
0p
1f
0g
0h
1r#
1p#
1o#
0n#
1l#
10#
1j#
0h#
0e#
1|"
1\#
0Z#
0W#
1["
0O!
0R!
1T!
0]!
0`!
1b!
1d!
0f!
1g!
1h!
1j!
1H
1F
1E
0D
1B
1@
0>
0;
12
00
0-
#8000
0'
0)
0&
0X"
0x"
0L#
0Y"
0z"
0{"
0Z"
0S#
0Q#
0O#
0M#
#8500
1(
1)"
1."
1/"
13"
01"
0:!
19!
1k
0l
1d#
1b#
1a#
0`#
1^#
10"
1V!
0X!
1Y!
1Z!
1\!
1:
18
17
06
14
#9000
0*
1'
1)
1&
0@"
1X"
1x"
1L#
1Y"
1z"
1{"
1Z"
0A"
1S#
1Q#
1O#
1M#
0.#
0/#
1}"
1\"
1>!
16!
0"#
1~"
0`"
1]"
1p
1h
1h#
0f#
1e#
0|"
1Z#
0X#
1W#
0["
1O!
0P!
1R!
1]!
0^!
1`!
1>
0<
1;
10
0.
1-
1^"
#10000
0'
0)
0&
0X"
0x"
0L#
0Y"
0z"
0{"
0Z"
0S#
0Q#
0O#
0M#
#11000
0,
0(
1*
1'
1)
1&
09"
0)"
1@"
1X"
1x"
1L#
0'#
0r"
0P"
0="
0."
1Y"
1z"
1{"
1Z"
0/"
0>"
0Q"
0s"
0(#
1A"
1S#
1Q#
1O#
1M#
1.#
1/#
11#
1!#
0}"
1_"
0\"
0>!
1=!
06!
15!
12!
1:#
02#
1t
1o
0p
1g
0h
0p#
1n#
00#
1i#
1|"
1[#
1["
1S!
1a!
1f!
0h!
0F
1D
1?
11
#12000
0'
0)
0&
0X"
0x"
0L#
0Y"
0z"
0{"
0Z"
0S#
0Q#
0O#
0M#
#13000
0*
1'
1)
1&
0@"
1X"
1x"
1L#
1Y"
1z"
1{"
1Z"
0A"
1S#
1Q#
1O#
1M#
0.#
0/#
1}"
1\"
1>!
16!
1G#
0E#
0~"
1i"
0g"
0]"
1p
1h
0k#
0j#
0i#
0h#
1f#
0|"
0]#
0\#
0[#
0Z#
1X#
0["
1P!
0R!
0S!
0T!
0U!
1^!
0`!
0a!
0b!
0c!
0A
0@
0?
0>
1<
03
02
01
00
1.
1H#
1j"
0^"
#13500
1(
1)"
1."
1/"
11"
1:!
14"
02"
1l
0b#
1`#
00"
1X!
0Z!
08
16
#14000
0'
0)
0&
0X"
0x"
0L#
0Y"
0z"
0{"
0Z"
0S#
0Q#
0O#
0M#
#15000
1*
1'
1)
1&
1@"
1X"
1x"
1L#
1Y"
1z"
1{"
1Z"
1A"
1S#
1Q#
1O#
1M#
1.#
1/#
1;#
03#
01#
1I#
0F#
0!#
0}"
1k"
0h"
0_"
0\"
0>!
0=!
0<!
1;!
06!
05!
04!
13!
02!
01!
10!
0?#
14#
0G#
1"#
0i"
1`"
1r
0s
0t
1m
0n
0o
0p
1e
0f
0g
0h
1q#
0o#
0l#
10#
1k#
1j#
1i#
1h#
0H#
1|"
1]#
1\#
1[#
1Z#
0j"
1["
1R!
1S!
1T!
1U!
1`!
1a!
1b!
1c!
0d!
0g!
1i!
1G
0E
0B
1A
1@
1?
1>
13
12
11
10
1H#
1j"
#16000
1,
0(
0'
0)
0&
19"
0)"
0X"
0x"
0L#
1'#
1r"
1P"
1="
0."
0Y"
0z"
0{"
0Z"
0/"
1>"
1Q"
1s"
1(#
0S#
0Q#
0O#
0M#
