ProjetoFinal/PC/simulation/qsim/PC.msim.vcd
$comment
	File created using the following command:
		vcd file PC.msim.vcd -direction
$end
$date
	Thu May 20 17:21:09 2021
$end
$version
	ModelSim Version 2020.1
$end
$timescale
	1ps
$end

$scope module PC_vlg_vec_tst $end
$var reg 1 ! Carga_PC $end
$var reg 1 " Clock $end
$var reg 8 # In [7:0] $end
$var reg 1 $ Incrementa_PC $end
$var wire 1 % Out [7] $end
$var wire 1 & Out [6] $end
$var wire 1 ' Out [5] $end
$var wire 1 ( Out [4] $end
$var wire 1 ) Out [3] $end
$var wire 1 * Out [2] $end
$var wire 1 + Out [1] $end
$var wire 1 , Out [0] $end

$scope module i1 $end
$var wire 1 - gnd $end
$var wire 1 . vcc $end
$var wire 1 / unknown $end
$var tri1 1 0 devclrn $end
$var tri1 1 1 devpor $end
$var tri1 1 2 devoe $end
$var wire 1 3 Out[7]~output_o $end
$var wire 1 4 Out[6]~output_o $end
$var wire 1 5 Out[5]~output_o $end
$var wire 1 6 Out[4]~output_o $end
$var wire 1 7 Out[3]~output_o $end
$var wire 1 8 Out[2]~output_o $end
$var wire 1 9 Out[1]~output_o $end
$var wire 1 : Out[0]~output_o $end
$var wire 1 ; Clock~input_o $end
$var wire 1 < Clock~inputclkctrl_outclk $end
$var wire 1 = In[6]~input_o $end
$var wire 1 > Carga_PC~input_o $end
$var wire 1 ? In[5]~input_o $end
$var wire 1 @ In[3]~input_o $end
$var wire 1 A In[2]~input_o $end
$var wire 1 B Incrementa_PC~input_o $end
$var wire 1 C In[0]~input_o $end
$var wire 1 D inst22a~0_combout $end
$var wire 1 E inst22a~q $end
$var wire 1 F instb~1_combout $end
$var wire 1 G instb~0_combout $end
$var wire 1 H In[1]~input_o $end
$var wire 1 I instb~q $end
$var wire 1 J inst29~0_combout $end
$var wire 1 K instb22~0_combout $end
$var wire 1 L instb22~q $end
$var wire 1 M inst35~3_combout $end
$var wire 1 N instb23~0_combout $end
$var wire 1 O instb23~q $end
$var wire 1 P In[4]~input_o $end
$var wire 1 Q instb24~0_combout $end
$var wire 1 R instb24~1_combout $end
$var wire 1 S instb24~q $end
$var wire 1 T inst35~2_combout $end
$var wire 1 U instb25~0_combout $end
$var wire 1 V instb25~q $end
$var wire 1 W inst35~0_combout $end
$var wire 1 X inst35~1_combout $end
$var wire 1 Y instb26~0_combout $end
$var wire 1 Z instb26~q $end
$var wire 1 [ In[7]~input_o $end
$var wire 1 \ instb27~0_combout $end
$var wire 1 ] instb27~1_combout $end
$var wire 1 ^ instb27~q $end
$upscope $end
$upscope $end
$enddefinitions $end
#0
$dumpvars
0!
0"
b11100100 #
0$
0,
0+
0*
0)
0(
0'
0&
0%
0-
1.
x/
10
11
12
03
04
05
06
07
08
09
0:
0;
0<
1=
0>
1?
0@
1A
0B
0C
0D
0E
0F
0G
0H
0I
0J
0K
0L
0M
0N
0O
0P
0Q
0R
0S
0T
0U
0V
0W
0X
0Y
0Z
1[
0\
0]
0^
$end
#5000
1"
1;
1<
#10000
0"
0;
0<
#15000
1"
1;
1<
#20000
0"
0;
0<
#25000
1"
1;
1<
#30000
0"
0;
0<
#35000
1"
1;
1<
#40000
0"
0;
0<
#45000
1"
1;
1<
#50000
0"
0;
0<
#55000
1"
1;
1<
#60000
0"
0;
0<
#65000
1"
1;
1<
#70000
0"
0;
0<
#75000
1"
1;
1<
#80000
0"
0;
0<
#85000
1"
1;
1<
#90000
0"
0;
0<
#95000
1"
1;
1<
#100000
1!
0"
1>
0;
0<
1\
1Y
1U
1K
1]
#105000
1"
1;
1<
1^
1Z
1V
1L
18
15
14
13
1%
1&
1'
1*
#110000
0"
0;
0<
#115000
1"
1;
1<
#120000
0"
0;
0<
#125000
1"
1;
1<
#130000
0"
0;
0<
#135000
1"
1;
1<
#140000
0"
0;
0<
#145000
1"
1;
1<
#150000
0"
0;
0<
#155000
1"
1;
1<
#160000
0"
0;
0<
#165000
1"
1;
1<
#170000
0"
0;
0<
#175000
1"
1;
1<
#180000
0"
0;
0<
#185000
1"
1;
1<
#190000
0"
0;
0<
#195000
1"
1;
1<
#200000
1$
b1100100 #
b100100 #
b100 #
b0 #
0!
0"
1B
0A
0?
0=
0[
0>
0;
0<
1F
1D
#205000
1"
1;
1<
1E
1:
1,
1G
0D
#210000
0"
0;
0<
#215000
1"
1;
1<
1I
0E
0:
19
0F
1+
0,
1D
#220000
0"
0;
0<
#225000
1"
1;
1<
1E
1:
1J
1,
0G
0D
1M
0K
1N
#230000
0"
0;
0<
#235000
1"
1;
1<
1O
0L
0I
0E
0:
09
08
17
0M
0J
1F
1)
0*
0+
0,
1R
0N
1K
1D
0R
1N
0K
#240000
0"
0;
0<
#245000
1"
1;
1<
1E
1:
1,
1G
0D
#250000
0"
0;
0<
#255000
1"
1;
1<
1I
0E
0:
19
0F
1+
0,
1D
#260000
0"
0;
0<
#265000
1"
1;
1<
1E
1:
1J
1,
0G
0D
1K
#270000
0"
0;
0<
#275000
1"
1;
1<
1L
0I
0E
0:
09
18
1M
0J
1F
1*
0+
0,
0K
1D
0M
1R
0N
1K
0R
1N
#280000
0"
0;
0<
#285000
1"
1;
1<
1E
1:
1,
1G
0D
#290000
0"
0;
0<
#295000
1"
1;
1<
1I
0E
0:
19
0F
1+
0,
1D
#300000
0"
0;
0<
#305000
1"
1;
1<
1E
1:
1J
1,
0G
0D
1M
0K
1R
0N
#310000
0"
0;
0<
#315000
1"
1;
1<
1S
0O
0L
0I
0E
0:
09
08
07
16
1Q
0M
0J
1F
1(
0)
0*
0+
0,
0R
1N
1K
1D
1R
0N
0K
#320000
0"
0;
0<
#325000
1"
1;
1<
1E
1:
1,
1G
0D
#330000
0"
0;
0<
#335000
1"
1;
1<
1I
0E
0:
19
0F
1+
0,
1D
#340000
0"
0;
0<
#345000
1"
1;
1<
1E
1:
1J
1,
0G
0D
1K
#350000
0"
0;
0<
#355000
1"
1;
1<
1L
0I
0E
0:
09
18
1M
0J
1F
1*
0+
0,
0K
1D
0M
1N
1K
0N
#360000
0"
0;
0<
#365000
1"
1;
1<
1E
1:
1,
1G
0D
#370000
0"
0;
0<
#375000
1"
1;
1<
1I
0E
0:
19
0F
1+
0,
1D
#380000
0"
0;
0<
#385000
1"
1;
1<
1E
1:
1J
1,
0G
0D
1M
0K
1N
#390000
0"
0;
0<
#395000
1"
1;
1<
1O
0L
0I
0E
0:
09
08
17
1W
0M
0J
1F
1)
0*
0+
0,
0R
0N
1K
1D
1R
1N
0K
#400000
0$
0"
0B
0;
0<
0F
0D
#405000
1"
1;
1<
#410000
0"
0;
0<
#415000
1"
1;
1<
#420000
0"
0;
0<
#425000
1"
1;
1<
#430000
0"
0;
0<
#435000
1"
1;
1<
#440000
0"
0;
0<
#445000
1"
1;
1<
#450000
0"
0;
0<
#455000
1"
1;
1<
#460000
0"
0;
0<
#465000
1"
1;
1<
#470000
0"
0;
0<
#475000
1"
1;
1<
#480000
0"
0;
0<
#485000
1"
1;
1<
#490000
0"
0;
0<
#495000
1"
1;
1<
#500000
0"
0;
0<
#505000
1"
1;
1<
#510000
0"
0;
0<
#515000
1"
1;
1<
#520000
0"
0;
0<
#525000
1"
1;
1<
#530000
0"
0;
0<
#535000
1"
1;
1<
#540000
0"
0;
0<
#545000
1"
1;
1<
#550000
0"
0;
0<
#555000
1"
1;
1<
#560000
0"
0;
0<
#565000
1"
1;
1<
#570000
0"
0;
0<
#575000
1"
1;
1<
#580000
0"
0;
0<
#585000
1"
1;
1<
#590000
0"
0;
0<
#595000
1"
1;
1<
#600000
b10 #
b11 #
b111 #
1$
0"
1C
1H
1A
1B
0;
0<
1F
1D
#605000
1"
1;
1<
1E
1:
1,
1G
0D
#610000
0"
0;
0<
#615000
1"
1;
1<
1I
0E
0:
19
0F
1+
0,
1D
#620000
0"
0;
0<
#625000
1"
1;
1<
1E
1:
1J
1,
0G
0D
1K
#630000
0"
0;
0<
#635000
1"
1;
1<
1L
0I
0E
0:
09
18
1X
1T
1M
0J
1F
1*
0+
0,
0K
1D
0X
0T
0M
0]
0Y
0U
0R
0N
1K
1]
1Y
1U
1R
1N
#640000
0"
0;
0<
#645000
1"
1;
1<
1E
1:
1,
1G
0D
#650000
0"
0;
0<
#655000
1"
1;
1<
1I
0E
0:
19
0F
1+
0,
1D
#660000
0"
0;
0<
#665000
1"
1;
1<
1E
1:
1J
1,
0G
0D
1X
1T
1M
0K
0]
0Y
0U
0R
0N
#670000
0"
0;
0<
#675000
1"
1;
1<
0^
0Z
0V
0S
0O
0L
0I
0E
0:
09
08
07
06
05
04
03
0\
0X
0W
0T
0Q
0M
0J
1F
0%
0&
0'
0(
0)
0*
0+
0,
1]
1Y
1U
1R
1N
1K
1D
0]
0Y
0U
0R
0N
0K
#680000
0"
0;
0<
#685000
1"
1;
1<
1E
1:
1,
1G
0D
#690000
0"
0;
0<
#695000
1"
1;
1<
1I
0E
0:
19
0F
1+
0,
1D
#700000
1!
0"
1>
0;
0<
1K
#705000
1"
1;
1<
1L
1E
1:
18
1*
1,
0G
#710000
0"
0;
0<
#715000
1"
1;
1<
#720000
0"
0;
0<
#725000
1"
1;
1<
#730000
0"
0;
0<
#735000
1"
1;
1<
#740000
0"
0;
0<
#745000
1"
1;
1<
#750000
0"
0;
0<
#755000
1"
1;
1<
#760000
0"
0;
0<
#765000
1"
1;
1<
#770000
0"
0;
0<
#775000
1"
1;
1<
#780000
0"
0;
0<
#785000
1"
1;
1<
#790000
0"
0;
0<
#795000
1"
1;
1<
#800000
b1111 #
b1101 #
b1100 #
b1000 #
0$
0!
0"
0C
0H
0A
1@
0B
0>
0;
0<
1F
1G
#805000
1"
1;
1<
#810000
0"
0;
0<
#815000
1"
1;
1<
#820000
0"
0;
0<
#825000
1"
1;
1<
#830000
0"
0;
0<
#835000
1"
1;
1<
#840000
0"
0;
0<
#845000
1"
1;
1<
#850000
0"
0;
0<
#855000
1"
1;
1<
#860000
0"
0;
0<
#865000
1"
1;
1<
#870000
0"
0;
0<
#875000
1"
1;
1<
#880000
0"
0;
0<
#885000
1"
1;
1<
#890000
0"
0;
0<
#895000
1"
1;
1<
#900000
1!
0"
1>
0;
0<
1N
0K
0D
#905000
1"
1;
1<
1O
0L
0I
0E
0:
09
08
17
0F
1)
0*
0+
0,
0G
#910000
0"
0;
0<
#915000
1"
1;
1<
#920000
0"
0;
0<
#925000
1"
1;
1<
#930000
0"
0;
0<
#935000
1"
1;
1<
#940000
0"
0;
0<
#945000
1"
1;
1<
#950000
0"
0;
0<
#955000
1"
1;
1<
#960000
0"
0;
0<
#965000
1"
1;
1<
#970000
0"
0;
0<
#975000
1"
1;
1<
#980000
0"
0;
0<
#985000
1"
1;
1<
#990000
0"
0;
0<
#995000
1"
1;
1<
